<svg width="28" height="25" viewBox="0 0 28 25" fill="none" xmlns="http://www.w3.org/2000/svg">
<path d="M8.48643 15.9092L3.40277 24.7133H7.62476L10.597 19.5652H17.4031L20.375 24.7133H24.5971L19.514 15.9092H8.48643Z" fill="#08152D"/>
<path d="M28 20.3115L19.5135 5.61255H14.4303L12.3198 9.26893H17.4031L17.4307 9.31697L25.8896 23.9669L28 20.3115Z" fill="#08152D"/>
<path d="M18.6524 14.417L16.5412 10.7611H9.73475L13.5691 4.12038H18.6524L16.5416 0.464445H11.4581L2.56885 15.8612L0 20.3115L2.11048 23.9669L7.62472 14.417H18.6524Z" fill="#08152D"/>
</svg>
