<svg viewBox="0 0 14 18" fill="none" xmlns="http://www.w3.org/2000/svg">
<path d="M0.273565 17.7057C0.377884 17.6346 0.453753 17.5325 0.544213 17.4462C0.663119 17.3328 0.774735 17.2109 0.889268 17.0927C1.06508 16.9113 1.24052 16.7288 1.41743 16.5485C1.53306 16.4307 1.65197 16.317 1.76759 16.1992C1.91058 16.0537 2.05028 15.9053 2.19289 15.7598C2.33624 15.6139 2.48215 15.4707 2.6255 15.3248C2.76812 15.1793 2.90818 15.0304 3.0508 14.885C3.19232 14.7406 3.33603 14.5992 3.47756 14.4549C3.62273 14.3068 3.76608 14.1568 3.91125 14.0083C4.0484 13.8681 4.18737 13.7293 4.32451 13.5891C4.47552 13.435 4.6247 13.279 4.77609 13.1257C4.91977 12.9798 5.06606 12.8373 5.20941 12.6911C5.35239 12.5456 5.49173 12.3964 5.63433 12.2505C5.77552 12.1065 5.92034 11.9659 6.06108 11.8215C6.27082 11.6057 6.48312 11.3925 6.68342 11.167C6.80921 11.0256 6.96063 10.9108 7.1291 10.8181C7.28701 10.7313 7.44894 10.7148 7.62117 10.716C8.08038 10.7186 8.53999 10.7182 8.99914 10.7152C9.06633 10.7148 9.08457 10.7332 9.08417 10.8024C9.08349 11.817 9.08378 12.8317 9.08929 13.846C9.08997 13.9833 8.95907 14.1355 8.81896 14.1291C8.5571 14.1171 8.29268 14.14 8.03224 14.1157C7.77987 14.0925 7.52818 14.0835 7.27683 14.0954C7.08022 14.1048 6.87997 14.1291 6.69212 14.1946C6.54547 14.2458 6.41127 14.3288 6.27775 14.413C6.15191 14.4919 6.01913 14.5622 5.88931 14.6362C5.66974 14.7615 5.45305 14.8921 5.23201 15.014C5.1062 15.0835 4.98105 15.1539 4.85708 15.2268C4.64404 15.352 4.42993 15.4755 4.21546 15.5978C4.07831 15.676 3.93788 15.7486 3.80218 15.8286C3.60668 15.9441 3.40825 16.0548 3.21311 16.1711C3.08982 16.2444 2.96545 16.317 2.83888 16.3851C2.61127 16.5082 2.38841 16.6394 2.16554 16.7711C2.03241 16.8499 1.89344 16.9188 1.76103 16.9992C1.56187 17.12 1.35615 17.2292 1.15554 17.3474C1.01729 17.4289 0.877229 17.509 0.736073 17.5864C0.527069 17.7009 0.323536 17.8261 0.117085 17.9454C0.0827989 17.9653 0.0448646 17.9794 0 18C0.0485121 17.6623 0.0959301 17.3321 0.142983 17.0015C0.219582 16.4614 0.295086 15.9213 0.371683 15.3817C0.465061 14.7234 0.559896 14.0651 0.653638 13.4069C0.754677 12.6967 0.854982 11.9865 0.956748 11.2762C1.04465 10.6614 1.13511 10.0469 1.22302 9.43202C1.30545 8.85459 1.38607 8.27677 1.46776 7.69929C1.56698 6.99766 1.66619 6.29604 1.76614 5.59442C1.84273 5.05734 1.91313 4.51916 2.00067 3.98433C2.06049 3.61968 2.17612 3.2685 2.30487 2.92254C2.41102 2.63718 2.53978 2.36304 2.68896 2.09974C2.81626 1.87496 2.96545 1.66477 3.1263 1.46282C3.28679 1.26197 3.46625 1.07984 3.6592 0.91378C3.80438 0.788489 3.96268 0.678533 4.12463 0.573817C4.33874 0.435058 4.56598 0.324727 4.79977 0.234218C4.9993 0.157177 5.20904 0.103694 5.42241 0.0670439C5.80797 0.000469198 6.1942 0.0419823 6.5798 0.0348755C7.267 0.0221596 7.95493 0.0288963 8.64247 0.0266469C9.7579 0.0229113 10.8733 0.01917 11.9887 0.013931C12.4592 0.0116874 12.9298 0.0101954 13.4003 9.33373e-05C13.5823 -0.00364455 13.6709 0.105192 13.6874 0.27162C13.6936 0.335199 13.6907 0.3999 13.6907 0.464231C13.6932 1.15726 13.695 1.84991 13.6987 2.54293C13.702 3.18022 13.706 3.81753 13.7114 4.45445C13.7125 4.576 13.6852 4.67623 13.5695 4.73756C13.5287 4.75925 13.4886 4.76077 13.4477 4.76115C12.9827 4.76636 12.5179 4.77048 12.0529 4.77422C11.2742 4.78057 10.4957 4.78583 9.71703 4.7918C9.06121 4.79705 8.40499 4.80302 7.74923 4.80937C7.33845 4.81349 6.92744 4.80676 6.51739 4.82884C6.29162 4.84115 6.07529 4.91898 5.87908 5.04872C5.74448 5.13772 5.61868 5.23538 5.49901 5.34494C5.3531 5.47808 5.22653 5.62881 5.10762 5.78553C4.97632 5.95904 4.85306 6.13973 4.75821 6.33721C4.67723 6.50623 4.60976 6.68196 4.53863 6.85593C4.38214 7.23854 4.22712 7.6215 4.07174 8.00446C3.87842 8.48172 3.68656 8.95966 3.49214 9.43652C3.24558 10.042 2.99608 10.646 2.74951 11.2515C2.50767 11.8462 2.26876 12.4424 2.02693 13.0374C1.79386 13.6108 1.55786 14.1826 1.32442 14.7559C1.06472 15.3932 0.809391 16.0328 0.54713 16.669C0.415819 16.9872 0.29618 17.3104 0.151007 17.6222C0.14809 17.6283 0.152832 17.6376 0.15502 17.6559C0.215204 17.5987 0.23709 17.5265 0.268823 17.4634C0.539835 16.9285 0.806833 16.3918 1.07675 15.8566C1.33135 15.352 1.58887 14.8494 1.84346 14.3453C2.08092 13.8744 2.31509 13.4021 2.55254 12.9312C2.80423 12.4319 3.05882 11.9337 3.31086 11.4348C3.5527 10.9561 3.79197 10.4762 4.03381 9.99748C4.27309 9.52404 4.51491 9.05168 4.75457 8.57818C4.88989 8.31077 5.01901 8.03959 5.15797 7.77406C5.2966 7.50892 5.45892 7.2591 5.64128 7.02232C5.79444 6.82335 5.96297 6.63897 6.15009 6.47439C6.24092 6.39439 6.34306 6.32634 6.44555 6.26233C6.72645 6.08694 7.03174 6.02339 7.36181 6.03051C7.91225 6.04246 8.46303 6.03238 9.01381 6.03125C9.51025 6.03011 10.0066 6.02863 10.5027 6.02601C10.7708 6.02487 11.0389 6.02339 11.307 6.01781C11.3679 6.01667 11.381 6.035 11.3807 6.09633C11.3766 6.54364 11.3774 6.99094 11.3759 7.43825C11.3741 7.94688 11.3712 8.45552 11.3697 8.96415C11.3694 9.05726 11.3828 9.15042 11.3635 9.24313C11.338 9.36585 11.2913 9.40172 11.1687 9.40212C10.2044 9.4036 9.24031 9.40696 8.27585 9.40958C8.076 9.40998 7.8761 9.41522 7.67659 9.4081C7.49675 9.40212 7.32134 9.42564 7.14553 9.45633C6.92886 9.49375 6.76436 9.61606 6.62971 9.7881C6.5083 9.94253 6.38461 10.0955 6.26207 10.2492C6.06256 10.4987 5.86447 10.7493 5.66355 10.9972C5.51617 11.1793 5.36369 11.3574 5.21632 11.5395C5.04781 11.7479 4.88294 11.9595 4.71516 12.1686C4.57583 12.3421 4.43357 12.513 4.29424 12.687C4.14615 12.8713 4.00207 13.0595 3.85289 13.2427C3.65118 13.4907 3.4451 13.7353 3.24303 13.9829C3.08071 14.1818 2.92131 14.3838 2.76045 14.5843C2.60689 14.7754 2.45187 14.9653 2.29867 15.1569C2.13162 15.3663 1.96675 15.5776 1.79933 15.7863C1.65999 15.9599 1.51628 16.13 1.37731 16.3043C1.17779 16.5542 0.973891 16.7995 0.775463 17.05C0.605125 17.2651 0.429314 17.4756 0.25788 17.69C0.246938 17.6982 0.231254 17.7042 0.235995 17.7222C0.237454 17.7277 0.246938 17.7352 0.253139 17.7352C0.273565 17.7363 0.2732 17.7203 0.273565 17.7057Z" fill="#186AB3"/>
</svg>
