<svg width="215" height="22" viewBox="0 0 215 22" fill="none" xmlns="http://www.w3.org/2000/svg">
<path d="M117.883 14.4021L118.114 13.8504L120.931 7.12116L124.766 16.7875L125.082 17.5846C122.896 16.607 120.39 15.5065 117.883 14.4021ZM105.914 12.4726L105.465 12.2641L107.446 8.01505L107.895 8.22458L105.914 12.4726ZM134.971 20.2451H131.612C131.445 20.0881 131.29 19.9069 131.15 19.6998C131.063 19.5721 130.981 19.4333 130.904 19.2857L122.218 0.219238H121.955C121.896 0.843777 121.409 2.11978 120.492 4.05024L116.481 13.1301L116.239 13.6788C116.098 13.6159 115.958 13.5541 115.817 13.4922C115.164 13.2039 114.517 12.9176 113.881 12.6362C113.683 12.5485 113.493 12.4935 113.521 12.2701C113.535 12.1583 113.544 12.0456 113.548 11.9349C113.557 11.6455 113.229 11.4929 113.013 11.6865C113.009 11.6894 113.005 11.6934 113.002 11.6954L112.574 11.4969L113.081 10.4105C113.366 10.3626 113.636 10.162 113.778 9.85676C113.887 9.62229 113.901 9.36983 113.836 9.15235C113.77 8.93387 113.625 8.75135 113.414 8.6535L113.36 8.62765C113.225 8.09185 112.884 7.6369 112.38 7.40045L109.601 6.10556C109.095 5.87009 108.528 5.90198 108.031 6.14342L107.976 6.11748C107.556 5.92196 107.039 6.14342 106.82 6.61227C106.749 6.76498 106.719 6.92455 106.724 7.07823C106.73 7.23184 106.772 7.3785 106.845 7.50318L104.687 12.1314C104.4 12.1803 104.13 12.3789 103.989 12.6851C103.769 13.154 103.932 13.6937 104.352 13.8893L104.407 13.9142C104.542 14.449 104.882 14.9059 105.387 15.1414L108.165 16.4363C108.671 16.6717 109.239 16.6389 109.736 16.3994L109.79 16.4244C110.21 16.6199 110.727 16.3984 110.947 15.9285C111.088 15.6233 111.068 15.289 110.922 15.0387L111.414 13.9831L111.856 14.1896C111.866 14.4639 112.181 14.6046 112.39 14.4161C112.473 14.3423 112.553 14.2634 112.631 14.1797C112.784 14.016 112.946 14.1257 113.142 14.2215C113.766 14.5268 114.401 14.8391 115.042 15.1543C115.19 15.2272 115.34 15.3011 115.49 15.3748C116.037 15.6442 116.587 15.9146 117.137 16.1849C120.079 17.6354 123.012 19.0819 125.428 20.2451H115.853C115.788 20.1098 115.754 19.98 115.754 19.8563C115.754 19.6329 115.802 19.3934 115.9 19.14L116.905 16.7386C116.352 16.4653 115.798 16.193 115.247 15.9215L113.735 19.3446C113.593 19.6106 113.432 19.8438 113.252 20.0451V19.1407C113.252 18.8077 112.982 18.5376 112.649 18.5376H112.637C112.416 17.979 111.876 17.6121 111.275 17.6121H101.991C101.39 17.6121 100.85 17.979 100.629 18.5376H100.617C100.284 18.5376 100.014 18.8077 100.014 19.1407V20.2451H98.697V21.2748H111.015V21.275H117.275V21.2748H124.324V21.275H127.595H133.069H133.654V21.2748H134.971V20.2451Z" fill="#1B3356"/>
<path d="M146.896 18.3561C145.958 18.8981 144.936 19.1066 143.894 19.1066C140.809 19.1066 138.62 16.9385 138.62 13.9782C138.62 10.9553 140.809 8.84974 143.915 8.84974C145.478 8.84974 146.792 9.37092 147.938 10.5175L149.648 8.84974C148.272 7.28619 146.229 6.47314 143.79 6.47314C139.224 6.47314 135.889 9.62109 135.889 13.9782C135.889 18.3353 139.224 21.4832 143.748 21.4832C145.812 21.4832 147.938 20.8578 149.46 19.6278V13.8114H146.896V18.3561ZM156.787 19.0024V14.9788H163.834V12.7482H156.787V8.95397H164.73V6.68162H154.077V21.2747H165.022V19.0024H156.787ZM179.363 6.68162V16.5632L171.316 6.68162H169.085V21.2747H171.775V11.3931L179.822 21.2747H182.053V6.68162H179.363ZM193.76 21.4832C196.157 21.4832 198.2 20.6285 199.555 19.0441L197.804 17.3763C196.741 18.5437 195.428 19.1066 193.906 19.1066C190.883 19.1066 188.694 16.9802 188.694 13.9782C188.694 10.9762 190.883 8.84974 193.906 8.84974C195.428 8.84974 196.741 9.41261 197.804 10.5592L199.555 8.91228C198.2 7.32788 196.157 6.47314 193.781 6.47314C189.298 6.47314 185.963 9.62109 185.963 13.9782C185.963 18.3353 189.298 21.4832 193.76 21.4832ZM215 6.68162H212.332L208.016 13.7906L203.741 6.68162H200.844L206.578 16.1671V21.2747H209.288V16.1255L215 6.68162Z" fill="#1B3356"/>
<path d="M0 21.4837H10.3403V19.1905H2.71015V6.89062H0V21.4837ZM24.5479 21.4837H27.3832L20.7954 6.89062H18.127L11.5601 21.4837H14.3537L15.7922 18.1065H23.0886L24.5479 21.4837ZM16.7093 15.9801L19.4403 9.60078L22.1922 15.9801H16.7093ZM48.2497 6.89062L44.518 18.0439L40.828 6.89062H38.3263L34.553 17.9814L30.9255 6.89062H28.1112L32.9477 21.4837H35.8455L39.5146 10.6848L43.1212 21.4837H45.9982L50.8347 6.89062H48.2497ZM65.9098 6.89062H63.2414L58.926 13.9996L54.6523 6.89062H51.7545L57.4875 16.3762V21.4837H60.1977V16.3345L65.9098 6.89062ZM71.2334 19.2114V15.1879H78.2798V12.9572H71.2334V9.16298H79.1762V6.89062H68.5233V21.4837H79.4681V19.2114H71.2334ZM95.9983 21.4837L92.6419 16.6889C94.6224 15.9175 95.7482 14.2914 95.7482 12.0816C95.7482 8.85027 93.3716 6.89062 89.5357 6.89062H83.5317V21.4837H86.2418V17.2309H89.5357C89.7233 17.2309 89.9109 17.2309 90.0986 17.21L93.0797 21.4837H95.9983ZM93.0172 12.0816C93.0172 13.9162 91.7872 15.0002 89.4106 15.0002H86.2418V9.18383H89.4106C91.7872 9.18383 93.0172 10.247 93.0172 12.0816Z" fill="#1B3356"/>
</svg>
