<svg width="64" height="64" viewBox="0 0 64 64" fill="none" xmlns="http://www.w3.org/2000/svg">
<path d="M26.5053 5.62192V45.997L20.481 47.8132V7.42868L21.8746 7.01145L23.5491 6.50983L26.5053 5.62192Z" fill="#021842"/>
<path d="M32.9305 8.41107V9.02582L28.9866 7.1582L27.7094 6.55188V5.93526L30.6839 7.3444L32.9305 8.41107Z" fill="#021842"/>
<path d="M32.9304 10.4184V11.0333L28.9867 9.16536L27.7097 8.55963V7.94282L30.6839 9.35187L32.9304 10.4184Z" fill="#021842"/>
<path d="M32.9299 12.4264V13.0414L28.9869 11.1737L27.7096 10.5679V9.95112L30.6832 11.3605L32.9299 12.4264Z" fill="#021842"/>
<path d="M32.9299 14.4347V15.0485L28.9872 13.1819L27.7092 12.5752V11.9587L30.684 13.3679L32.9299 14.4347Z" fill="#021842"/>
<path d="M32.9302 16.4427V17.0578L28.9865 15.1902L27.7092 14.583V13.9669L30.6831 15.3772L32.9302 16.4427Z" fill="#021842"/>
<path d="M32.93 18.4506V19.065L28.987 17.198L27.7091 16.5914V15.9751L30.6836 17.385L32.93 18.4506Z" fill="#021842"/>
<path d="M32.9304 20.4586V21.073L28.987 19.2055L27.7098 18.5989V17.9827L30.6838 19.3925L32.9304 20.4586Z" fill="#021842"/>
<path d="M32.9302 22.4662V23.0812L28.987 21.2141L27.7095 20.6076V19.9909L30.6834 21.4001L32.9302 22.4662Z" fill="#021842"/>
<path d="M32.9302 24.4739V25.0884L28.9865 23.2216L27.7098 22.6146V21.9985L30.6833 23.4083L32.9302 24.4739Z" fill="#021842"/>
<path d="M32.9303 26.4828V27.0965L28.9869 25.2299L27.7092 24.6229V24.0067L30.6835 25.4164L32.9303 26.4828Z" fill="#021842"/>
<path d="M32.93 28.49V29.1042L28.987 27.2371L27.7097 26.631V26.0143L30.6835 27.424L32.93 28.49Z" fill="#021842"/>
<path d="M32.9298 30.4984V31.1129L28.9865 29.2453L27.7094 28.6387V28.0226L30.6837 29.4325L32.9298 30.4984Z" fill="#021842"/>
<path d="M32.9302 32.5062V33.1208L28.987 31.2535L27.7091 30.6469V30.0308L30.6833 31.4403L32.9302 32.5062Z" fill="#021842"/>
<path d="M32.9304 34.5139V35.1281L28.9868 33.2614L27.7095 32.6549V32.0384L30.6837 33.4475L32.9304 34.5139Z" fill="#021842"/>
<path d="M32.9301 36.5225V37.1369L28.9865 35.2693L27.7097 34.6633V34.0466L30.6832 35.4563L32.9301 36.5225Z" fill="#021842"/>
<path d="M32.9301 38.5299V39.1441L28.9871 37.2766L27.7098 36.6706V36.0541L30.6834 37.4636L32.9301 38.5299Z" fill="#021842"/>
<path d="M32.9298 40.5382V41.1527L28.9865 39.2855L27.7095 38.6792V38.0624L30.683 39.4717L32.9298 40.5382Z" fill="#021842"/>
<path d="M32.9304 42.5459V43.1603L28.9867 41.2931L27.7092 40.6866V40.07L30.6833 41.4797L32.9304 42.5459Z" fill="#021842"/>
<path d="M32.2955 44.253L31.5023 44.4921L28.9864 43.3013L27.7091 42.6944V42.0783L30.6834 43.4883L32.2955 44.253Z" fill="#021842"/>
<path d="M29.7069 45.0344L28.9099 45.2729L27.7094 44.7032V44.0865L29.7069 45.0344Z" fill="#021842"/>
<path d="M38.2935 14.8006V42.4459L33.5327 43.8815V16.2283L34.6326 15.8987L35.958 15.5012L38.2935 14.8006Z" fill="#021842"/>
<path d="M43.3715 17.0047V17.4903L40.2553 16.0149L39.2454 15.5354V15.048L41.5952 16.1618L43.3715 17.0047Z" fill="#021842"/>
<path d="M43.3718 18.5913V19.0768L40.2553 17.6012L39.246 17.1218V16.6346L41.596 17.7483L43.3718 18.5913Z" fill="#021842"/>
<path d="M43.3714 20.178V20.6641L40.2554 19.1878L39.2454 18.7086V18.2217L41.5958 19.3357L43.3714 20.178Z" fill="#021842"/>
<path d="M43.3717 21.7651V22.2507L40.2552 20.775L39.2456 20.2961V19.8088L41.5957 20.923L43.3717 21.7651Z" fill="#021842"/>
<path d="M43.372 23.3519V23.837L40.255 22.3614L39.246 21.8821V21.3952L41.5962 22.5094L43.372 23.3519Z" fill="#021842"/>
<path d="M43.3713 24.9388V25.4242L40.2547 23.949L39.2457 23.4694V22.9824L41.5961 24.0961L43.3713 24.9388Z" fill="#021842"/>
<path d="M43.3714 26.526V27.0114L40.2552 25.5363L39.2457 25.0566V24.5695L41.5956 25.6833L43.3714 26.526Z" fill="#021842"/>
<path d="M43.3719 28.1128V28.5982L40.2552 27.1227L39.2455 26.643V26.156L41.596 27.2696L43.3719 28.1128Z" fill="#021842"/>
<path d="M43.372 29.6997V30.1849L40.255 28.7094L39.2454 28.2299V27.7431L41.5958 28.8569L43.372 29.6997Z" fill="#021842"/>
<path d="M43.3713 31.2869V31.7725L40.2549 30.2967L39.2457 29.8175V29.3303L41.5953 30.444L43.3713 31.2869Z" fill="#021842"/>
<path d="M43.3721 32.8735V33.3586L40.2549 31.883L39.2456 31.4034V30.9167L41.596 32.0309L43.3721 32.8735Z" fill="#021842"/>
<path d="M43.3714 34.4603V34.9455L40.2552 33.4705L39.246 32.9906V32.5038L41.5958 33.6181L43.3714 34.4603Z" fill="#021842"/>
<path d="M43.3714 36.048V36.5333L40.2548 35.0577L39.2454 34.5778V34.0911L41.5953 35.205L43.3714 36.048Z" fill="#021842"/>
<path d="M43.3715 37.6343V38.1194L40.2555 36.6439L39.2462 36.1648V35.6775L41.5962 36.7915L43.3715 37.6343Z" fill="#021842"/>
<path d="M43.372 39.2214V39.7069L40.2554 38.2311L39.2457 37.7516V37.2646L41.5959 38.3783L43.372 39.2214Z" fill="#021842"/>
<path d="M43.3719 40.8087V40.9151L42.8862 41.0619H42.884L40.255 39.8175L39.2454 39.3391V38.8511L41.5963 39.9657L43.3719 40.8087Z" fill="#021842"/>
<path d="M41.4657 41.4896L40.8358 41.6807L40.2552 41.4056L39.2452 40.9256V40.4376L41.4657 41.4896Z" fill="#021842"/>
<path d="M47.7828 26.0973V39.5868L44.5762 40.5523V27.0587L45.3176 26.8362L46.2083 26.569L47.7828 26.0973Z" fill="#021842"/>
<path d="M51.2029 27.581V27.9078L49.1041 26.9143L48.4237 26.5916V26.2631L50.0067 27.0133L51.2029 27.581Z" fill="#021842"/>
<path d="M51.2028 28.6495V28.9769L49.104 27.9826L48.4243 27.6601V27.3319L50.0066 28.0824L51.2028 28.6495Z" fill="#021842"/>
<path d="M51.2027 29.7187V30.0458L49.1035 29.0516L48.4238 28.7293V28.4006L50.0067 29.1514L51.2027 29.7187Z" fill="#021842"/>
<path d="M51.2026 30.7868V31.1136L49.104 30.1205L48.4243 29.7977V29.4693L50.0069 30.2194L51.2026 30.7868Z" fill="#021842"/>
<path d="M51.2025 31.8557V32.1829L49.1033 31.1887L48.4237 30.8661V30.5381L50.0065 31.2883L51.2025 31.8557Z" fill="#021842"/>
<path d="M51.2023 32.9243V33.2519L49.1035 32.2574L48.4241 31.9352V31.6068L50.0062 32.357L51.2023 32.9243Z" fill="#021842"/>
<path d="M51.203 33.9935V34.3199L49.1041 33.3269L48.4243 33.0035V32.6756L50.0069 33.4256L51.203 33.9935Z" fill="#021842"/>
<path d="M51.2025 35.0618V35.3893L49.1039 34.3954L48.4237 34.0726V33.7443L50.0066 34.4949L51.2025 35.0618Z" fill="#021842"/>
<path d="M51.202 36.1306V36.4583L49.1032 35.4639L48.4236 35.1408V34.8131L50.0066 35.5633L51.202 36.1306Z" fill="#021842"/>
<path d="M51.2019 37.1993V37.5272L49.1032 36.5331L48.4234 36.2105V35.8819L50.0063 36.6323L51.2019 37.1993Z" fill="#021842"/>
<path d="M51.2023 38.2686V38.5966L51.1501 38.572L49.104 37.6022L48.4234 37.2795V36.95L50.0059 37.7013L51.2023 38.2686Z" fill="#021842"/>
<path d="M50.1968 38.8593L49.7727 38.9879L49.1041 38.6702L48.4236 38.3473V38.02L50.0054 38.7692L50.1968 38.8593Z" fill="#021842"/>
<path d="M51.2029 38.556V38.5964L51.1506 38.5722L51.2029 38.556Z" fill="#021842"/>
<path d="M62.9733 35.8127C62.9572 35.9377 62.941 36.0603 62.9209 36.1845L60.2767 37.3509L51.2029 41.3494L50.998 41.439L50.1873 41.7971L49.8292 41.9536L49.0201 42.311L48.6611 42.4699L47.7835 42.8546L44.5763 44.2687L43.372 44.8002L42.8582 45.0277L41.6555 45.5577L41.1231 45.7908H41.1207L39.9204 46.3207L39.3864 46.5555L38.2942 47.0379L33.5335 49.1359L16.5279 56.6296L13.8854 57.7935C11.6422 56.2682 9.60635 54.4629 7.82513 52.4286L10.3793 51.6599L20.4813 48.6156L26.5052 46.8007L28.9106 46.0755L29.7076 45.8368L31.5032 45.2947L32.2961 45.0559L33.5335 44.6841L38.2942 43.2483L39.2453 42.9611L39.4179 42.9111L40.836 42.4836L41.4659 42.2932L42.884 41.8649H42.8864L43.372 41.7181L44.5763 41.3551L47.7835 40.3887L48.424 40.1968L48.8176 40.0782L49.7735 39.791L50.197 39.6628L51.1504 39.3756L51.2029 39.399V39.3595L60.4195 36.5822L62.9733 35.8127Z" fill="#021842"/>
<path d="M62.8988 36.3392C62.877 36.494 62.852 36.6463 62.8262 36.7995L60.0054 38.5804L25.6839 60.232L22.8582 62.0152C20.168 61.2381 17.6237 60.111 15.2785 58.6897L17.951 57.4369L60.2279 37.5944L62.8988 36.3392Z" fill="#021842"/>
<path d="M62.8042 36.9379C62.7679 37.1466 62.7325 37.3536 62.6914 37.5606L59.5109 40.3456L36.5803 60.4187L33.4038 63.1997C32.8157 63.2343 32.2212 63.2496 31.625 63.2496C29.3476 63.2496 27.1274 63.0087 24.9869 62.5487L27.8637 60.6L59.9266 38.8858L62.8042 36.9379Z" fill="#021842"/>
<path d="M60.0051 38.5805C59.9789 38.6825 59.9527 38.7836 59.9264 38.8857L62.8038 36.9376C62.8125 36.892 62.8184 36.8453 62.8262 36.7996L60.0051 38.5805ZM60.2764 37.3518C60.2598 37.4315 60.2443 37.5141 60.2278 37.5948C60.1578 37.9263 60.0829 38.2529 60.0051 38.5805C59.9789 38.6825 59.9527 38.7836 59.9264 38.8857C59.8 39.3776 59.662 39.8636 59.5113 40.3458C56.2742 50.6763 47.4408 58.557 36.5806 60.4186C34.9698 60.6956 33.3134 60.8405 31.6248 60.8405C30.3524 60.8405 29.0945 60.7578 27.8639 60.5994C27.1293 60.5051 26.4003 60.3826 25.6834 60.2319C22.9466 59.6652 20.3503 58.7135 17.9511 57.4372C17.4688 57.1815 16.993 56.9122 16.5272 56.6303C14.2582 55.2548 12.1903 53.5799 10.3791 51.66C5.44159 46.4253 2.40953 39.3737 2.40953 31.6251C2.40953 15.5156 15.5154 2.40983 31.6248 2.40983C47.7344 2.40983 60.8402 15.5156 60.8402 31.6251C60.8402 33.3156 60.6953 34.9721 60.4183 36.5828C60.3745 36.8414 60.3288 37.0971 60.2764 37.3518ZM31.6248 0C14.1861 0 0 14.1858 0 31.6251C0 39.5827 2.95352 46.8656 7.82478 52.4289C9.60595 54.4635 11.6419 56.2687 13.8849 57.7939C14.3407 58.106 14.8065 58.4025 15.2783 58.6902C17.6235 60.1114 20.1677 61.2381 22.8584 62.0151C23.559 62.2158 24.2679 62.3945 24.9869 62.549C27.1274 63.0088 29.3482 63.25 31.6248 63.25C32.2217 63.25 32.8157 63.234 33.4038 63.1999C48.0173 62.3864 60.0129 51.6056 62.692 37.5608C62.7319 37.3537 62.7678 37.1466 62.8038 36.9376C62.8125 36.892 62.8184 36.8453 62.8262 36.7996C62.8524 36.647 62.8767 36.4944 62.8991 36.3398C62.9068 36.2873 62.9146 36.2368 62.9205 36.1852C62.9409 36.0608 62.9564 35.9383 62.9729 35.8129C63.1557 34.4423 63.25 33.0444 63.25 31.6251C63.25 14.1858 49.0642 0 31.6248 0ZM60.0051 38.5805C59.9789 38.6825 59.9527 38.7836 59.9264 38.8857L62.8038 36.9376C62.8125 36.892 62.8184 36.8453 62.8262 36.7996L60.0051 38.5805Z" fill="#021842"/>
</svg>
