<svg width="285" height="58" viewBox="0 0 285 58" fill="none" xmlns="http://www.w3.org/2000/svg">
<path d="M22.8727 52.8086V57.4097C24.1241 57.6041 25.3986 57.7282 26.7042 57.7282C28.0177 57.7282 29.2924 57.6041 30.5439 57.4097V55.6143V52.8086V13.4536L22.8727 18.824V52.8086Z" fill="#1F4271"/>
<path d="M0 31.9742C0 44.207 8.5335 54.4176 19.9583 57.0519V53.5467V52.389V27.342L12.2875 32.7084V48.7361C6.55158 44.5702 2.80574 37.838 2.80574 30.2058C2.80574 17.5299 13.0801 7.25923 25.7561 7.25923C27.0618 7.25923 28.3364 7.39137 29.5877 7.60122V6.54036C28.3364 6.35772 27.0618 6.22559 25.7561 6.22559C11.5335 6.22559 0 17.7514 0 31.9742Z" fill="#6ED0F6"/>
<path d="M44.0435 12.1516V14.1761C48.1004 18.3107 50.6111 23.9571 50.6111 30.2056C50.6111 37.8379 46.8724 44.57 41.1368 48.736V23.6151V7.85372V5.36672L33.4581 0V52.3888V54.4328V57.0517C44.883 54.4174 53.4163 44.2068 53.4163 31.974C53.4163 23.9883 49.7559 16.873 44.0435 12.1516Z" fill="#377AC7"/>
<path d="M76.6124 46.0879C73.7359 46.0879 71.1445 45.479 68.838 44.2609C66.5576 43.0428 64.7565 41.3586 63.4348 39.2076C62.139 37.0565 61.4912 34.6337 61.4912 31.9385C61.4912 29.2433 62.139 26.8203 63.4348 24.6694C64.7565 22.5185 66.5576 20.834 68.838 19.616C71.1445 18.398 73.7359 17.7891 76.6124 17.7891C79.489 17.7891 82.0676 18.398 84.348 19.616C86.6545 20.834 88.4554 22.5185 89.7512 24.6694C91.0728 26.8203 91.7337 29.2433 91.7337 31.9385C91.7337 34.6337 91.0728 37.0565 89.7512 39.2076C88.4554 41.3586 86.6545 43.0428 84.348 44.2609C82.0676 45.479 79.489 46.0879 76.6124 46.0879ZM76.6124 39.7129C77.986 39.7129 79.2299 39.3889 80.3442 38.7411C81.4584 38.0933 82.3397 37.1862 82.9874 36.0201C83.6352 34.8281 83.9593 33.4676 83.9593 31.9385C83.9593 30.4094 83.6352 29.062 82.9874 27.8958C82.3397 26.7037 81.4584 25.7837 80.3442 25.1359C79.2299 24.488 77.986 24.1641 76.6124 24.1641C75.2389 24.1641 73.995 24.488 72.8807 25.1359C71.7665 25.7837 70.8852 26.7037 70.2374 27.8958C69.5896 29.062 69.2656 30.4094 69.2656 31.9385C69.2656 33.4676 69.5896 34.8281 70.2374 36.0201C70.8852 37.1862 71.7665 38.0933 72.8807 38.7411C73.995 39.3889 75.2389 39.7129 76.6124 39.7129ZM102.343 24.4362H93.9859V18.3333H118.359V24.4362H110.04V45.5437H102.343V24.4362ZM135.579 46.0879C132.728 46.0879 130.163 45.4918 127.882 44.2998C125.628 43.0817 123.852 41.3975 122.557 39.2464C121.261 37.0954 120.613 34.6595 120.613 31.9385C120.613 29.2174 121.261 26.7815 122.557 24.6305C123.852 22.4796 125.628 20.8081 127.882 19.616C130.163 18.398 132.728 17.7891 135.579 17.7891C138.067 17.7891 140.308 18.2296 142.304 19.1107C144.299 19.9918 145.958 21.2616 147.28 22.9202L142.382 27.3516C140.619 25.2266 138.481 24.1641 135.968 24.1641C134.491 24.1641 133.169 24.488 132.003 25.1359C130.862 25.7837 129.968 26.7037 129.321 27.8958C128.699 29.062 128.388 30.4094 128.388 31.9385C128.388 33.4676 128.699 34.8281 129.321 36.0201C129.968 37.1862 130.862 38.0933 132.003 38.7411C133.169 39.3889 134.491 39.7129 135.968 39.7129C138.481 39.7129 140.619 38.6503 142.382 36.5254L147.28 40.9568C145.958 42.6152 144.299 43.8853 142.304 44.7663C140.308 45.6473 138.067 46.0879 135.579 46.0879ZM153.588 18.3333H164.666C167.543 18.3333 170.082 18.9164 172.285 20.0825C174.488 21.2228 176.198 22.8295 177.416 24.9026C178.634 26.9499 179.243 29.2952 179.243 31.9385C179.243 34.5818 178.634 36.9399 177.416 39.0132C176.198 41.0604 174.488 42.6672 172.285 43.8333C170.082 44.9737 167.543 45.5437 164.666 45.5437H153.588V18.3333ZM164.511 43.0559C166.895 43.0559 168.981 42.5894 170.769 41.6565C172.557 40.6978 173.944 39.3889 174.928 37.7304C175.913 36.0459 176.405 34.1153 176.405 31.9385C176.405 29.7617 175.913 27.844 174.928 26.1854C173.944 24.501 172.557 23.1923 170.769 22.2593C168.981 21.3005 166.895 20.8211 164.511 20.8211H156.464V43.0559H164.511ZM206.11 43.0559V45.5437H186.869V18.3333H205.527V20.8211H189.745V30.5002H203.817V32.9492H189.745V43.0559H206.11ZM221.54 45.7769C219.519 45.7769 217.576 45.4529 215.71 44.8051C213.87 44.1574 212.444 43.3022 211.434 42.2396L212.561 40.0239C213.546 41.0087 214.854 41.812 216.487 42.4339C218.12 43.0301 219.804 43.328 221.54 43.328C223.976 43.328 225.803 42.8874 227.021 42.0063C228.24 41.0992 228.848 39.9331 228.848 38.5079C228.848 37.4194 228.512 36.5512 227.838 35.9034C227.19 35.2557 226.386 34.7631 225.428 34.4263C224.469 34.0634 223.134 33.6747 221.424 33.2601C219.377 32.7417 217.744 32.2495 216.526 31.783C215.308 31.2907 214.258 30.5521 213.377 29.5673C212.522 28.5825 212.095 27.2479 212.095 25.5635C212.095 24.19 212.457 22.9461 213.183 21.8318C213.908 20.6915 215.023 19.7845 216.526 19.1107C218.029 18.4369 219.895 18.1 222.124 18.1C223.678 18.1 225.194 18.3203 226.672 18.7609C228.175 19.1755 229.47 19.7586 230.559 20.5101L229.587 22.8036C228.447 22.052 227.229 21.4949 225.933 21.1321C224.637 20.7433 223.367 20.549 222.124 20.549C219.739 20.549 217.938 21.0154 216.72 21.9484C215.528 22.8554 214.932 24.0345 214.932 25.4857C214.932 26.5741 215.256 27.4552 215.904 28.129C216.578 28.7769 217.407 29.2821 218.392 29.645C219.403 29.9818 220.75 30.3578 222.435 30.7723C224.43 31.2646 226.037 31.7572 227.255 32.2495C228.499 32.7159 229.548 33.4414 230.403 34.4263C231.258 35.385 231.686 36.6939 231.686 38.3524C231.686 39.726 231.31 40.9826 230.559 42.123C229.833 43.2372 228.706 44.1313 227.177 44.8051C225.648 45.4529 223.769 45.7769 221.54 45.7769ZM247.555 32.7548L241.996 38.3912V45.5437H239.12V18.3333H241.996V34.7761L257.973 18.3333H261.277L249.498 30.6557L262.093 45.5437H258.672L247.555 32.7548ZM274.854 45.7769C272.833 45.7769 270.889 45.4529 269.024 44.8051C267.184 44.1574 265.758 43.3022 264.748 42.2396L265.875 40.0239C266.86 41.0087 268.168 41.812 269.801 42.4339C271.434 43.0301 273.118 43.328 274.854 43.328C277.291 43.328 279.118 42.8874 280.335 42.0063C281.553 41.0992 282.162 39.9331 282.162 38.5079C282.162 37.4194 281.826 36.5512 281.152 35.9034C280.504 35.2557 279.701 34.7631 278.742 34.4263C277.783 34.0634 276.448 33.6747 274.738 33.2601C272.691 32.7417 271.058 32.2495 269.84 31.783C268.622 31.2907 267.573 30.5521 266.691 29.5673C265.836 28.5825 265.408 27.2479 265.408 25.5635C265.408 24.19 265.771 22.9461 266.497 21.8318C267.223 20.6915 268.337 19.7845 269.84 19.1107C271.343 18.4369 273.209 18.1 275.437 18.1C276.992 18.1 278.508 18.3203 279.985 18.7609C281.489 19.1755 282.784 19.7586 283.873 20.5101L282.901 22.8036C281.761 22.052 280.543 21.4949 279.247 21.1321C277.951 20.7433 276.681 20.549 275.437 20.549C273.053 20.549 271.252 21.0154 270.034 21.9484C268.842 22.8554 268.246 24.0345 268.246 25.4857C268.246 26.5741 268.57 27.4552 269.218 28.129C269.892 28.7769 270.721 29.2821 271.706 29.645C272.716 29.9818 274.064 30.3578 275.748 30.7723C277.744 31.2646 279.351 31.7572 280.569 32.2495C281.812 32.7159 282.862 33.4414 283.717 34.4263C284.572 35.385 285 36.6939 285 38.3524C285 39.726 284.624 40.9826 283.873 42.123C283.147 43.2372 282.02 44.1313 280.491 44.8051C278.962 45.4529 277.083 45.7769 274.854 45.7769Z" fill="#1F4271"/>
</svg>
